PeDrOOM Blog - Cotação do ouro - Parte 5
…
The LSTM algorithm requires the input data to be centered and scaled. We can preprocess the data using the recipes package.

rec_obj <- recipe(value ~ ., df) %>%
    step_sqrt(value) %>%
    step_center(value) %>%
    step_scale(value) %>%
   # step_BoxCox(value) %>% 
    prep()

df_processed_tbl <- bake(rec_obj, df)

df_processed_tbl

# A tibble: 60 × 3
   index      key      value
   <date>     <fct>    <dbl>
 1 2013-01-01 training 3.40 
 2 2013-02-01 training 3.08 
 3 2013-03-01 training 2.80 
 4 2013-04-01 training 1.93 
 5 2013-05-01 training 1.37 
 6 2013-06-01 training 0.733
 7 2013-07-01 training 0.277
 8 2013-08-01 training 0.823
 9 2013-09-01 training 0.783
10 2013-10-01 training 0.500
# ℹ 50 more rows
…
