PeDrOOM Blog - Cotação do ouro - Parte 4
…
[1] 4

parallel_start(4, .method = "parallel")

Recipe

recipe_spec_1 <- recipe(media ~ ., data = training(splits)) %>%
  step_timeseries_signature(mes) %>%
  step_rm(mes) %>%
  step_nzv(all_numeric_predictors()) %>% 
  step_normalize(all_numeric_predictors())

recipe_spec_1 %>%  prep() %>% bake(new_data=NULL) 

# A tibble: 117 × 20
   media mes_index.num mes_year mes_year.iso mes_half mes_quarter mes_month
   <dbl>         <dbl>    <dbl>        <dbl>    <dbl>       <dbl>     <dbl>
 1  162.         -1.71    -1.55        -1.55   -0.971      -1.32     -1.57 
 2  158.         -1.68    -1.55        -1.55   -0.971      -1.32     -1.28 
 3  154.         -1.65    -1.55        -1.55   -0.971      -1.32     -0.986
 4  144.         -1.62    -1.55        -1.55   -0.971      -0.416    -0.695
 5  137.         -1.59    -1.55        -1.55   -0.971      -0.416    -0.404
 6  130.         -1.56    -1.55        -1.55   -0.971      -0.416    -0.112
 7  124.         -1.53    -1.55        -1.55    1.02        0.485     0.179
 8  131.         -1.50    -1.55        -1.55    1.02        0.485     0.471
 9  130.         -1.47    -1.55        -1.55    1.02        0.485     0.762
10  127.         -1.44    -1.55        -1.55    1.02        1.39      1.05 
# ℹ 107 more rows
# ℹ 13 more variables: mes_month.xts <dbl>, mes_month.lbl <ord>,
#   mes_wday <dbl>, mes_wday.xts <dbl>, mes_wday.lbl <ord>, mes_qday <dbl>,
#   mes_yday <dbl>, mes_mweek <dbl>, mes_week <dbl>, mes_week.iso <dbl>,
#   mes_week2 <dbl>, mes_week3 <dbl>, mes_week4 <dbl>
…
