PeDrOOM Blog - Cotação do ouro - Parte 4
…
Recipe

recipe_spec <- recipe(media ~ mes, training(splits)) %>%
    step_timeseries_signature(mes) %>%
    step_rm(matches("(.iso$)|(.xts$)")) %>%
    step_normalize(matches("(index.num$)|(_year$)")) %>%
    step_dummy(all_nominal()) %>%
    step_fourier(mes, K = 1, period = 12)

recipe_spec %>% prep() %>% juice()

# A tibble: 117 × 42
   mes        media mes_index.num mes_year mes_half mes_quarter mes_month
   <date>     <dbl>         <dbl>    <dbl>    <int>       <int>     <int>
 1 2013-01-01  162.         -1.71    -1.55        1           1         1
 2 2013-02-01  158.         -1.68    -1.55        1           1         2
 3 2013-03-01  154.         -1.65    -1.55        1           1         3
 4 2013-04-01  144.         -1.62    -1.55        1           2         4
 5 2013-05-01  137.         -1.59    -1.55        1           2         5
 6 2013-06-01  130.         -1.56    -1.55        1           2         6
 7 2013-07-01  124.         -1.53    -1.55        2           3         7
 8 2013-08-01  131.         -1.50    -1.55        2           3         8
 9 2013-09-01  130.         -1.47    -1.55        2           3         9
10 2013-10-01  127.         -1.44    -1.55        2           4        10
# ℹ 107 more rows
# ℹ 35 more variables: mes_day <int>, mes_hour <int>, mes_minute <int>,
#   mes_second <int>, mes_hour12 <int>, mes_am.pm <int>, mes_wday <int>,
#   mes_mday <int>, mes_qday <int>, mes_yday <int>, mes_mweek <int>,
#   mes_week <int>, mes_week2 <int>, mes_week3 <int>, mes_week4 <int>,
#   mes_mday7 <int>, mes_month.lbl_01 <dbl>, mes_month.lbl_02 <dbl>,
#   mes_month.lbl_03 <dbl>, mes_month.lbl_04 <dbl>, mes_month.lbl_05 <dbl>, …
…
